spmodel Workshop - 5 Additional Modeling Features
…
5.2 Non-Spatial Random Effects

In the moss data, there are actually some spatial locations that have more than one measurement due to multiple samples being collected at a single location or due to a single sample being tested multiple times in the laboratory. The sample variable indexes the spatial location:

moss
#> Simple feature collection with 365 features and 7 fields
#> Geometry type: POINT
#> Dimension:     XY
#> Bounding box:  xmin: -445884.1 ymin: 1929616 xmax: -383656.8 ymax: 2061414
#> Projected CRS: NAD83 / Alaska Albers
#> # A tibble: 365 × 8
#>   sample field_dup lab_rep year  sideroad log_dist2road log_Zn
#>   <fct>  <fct>     <fct>   <fct> <fct>            <dbl>  <dbl>
#> 1 001PR  1         1       2001  N                 2.68   7.33
#> 2 001PR  1         2       2001  N                 2.68   7.38
#> 3 002PR  1         1       2001  N                 2.54   7.58
#> 4 003PR  1         1       2001  N                 2.97   7.63
#> 5 004PR  1         1       2001  N                 2.72   7.26
#> 6 005PR  1         1       2001  N                 2.76   7.65
#> # ℹ 359 more rows
#> # ℹ 1 more variable: geometry <POINT [m]>
…
