spmodel Workshop - 9 Areal Data
…
For areal data, we can obtain predictions for unobserved polygons using predict() on the fitted model object or augment() on the fitted model object, specifying the newdata argument to be mod$newdata. Both approaches are given below:

sealmod <- spautor(log_trend ~ 1, data = seal, spcov_type = "car")
summary(sealmod)

predict(sealmod)

augment(sealmod, newdata = sealmod$newdata)
#> Simple feature collection with 28 features and 2 fields
#> Geometry type: POLYGON
#> Dimension:     XY
#> Bounding box:  xmin: 913618.8 ymin: 1007542 xmax: 1115097 ymax: 1132682
#> Projected CRS: NAD83 / Alaska Albers
#> # A tibble: 28 × 3
#>   log_trend  .fitted                                                 geometry
#> *     <dbl>    <dbl>                                            <POLYGON [m]>
#> 1        NA -0.115   ((1035002 1054710, 1035002 1054542, 1035002 1053542, 10…
#> 2        NA -0.00918 ((1043093 1020553, 1043097 1020550, 1043101 1020550, 10…
#> 3        NA -0.0603  ((1099737 1054310, 1099752 1054262, 1099788 1054278, 10…
#> 4        NA -0.0360  ((1099002 1036542, 1099134 1036462, 1099139 1036431, 10…
#> 5        NA -0.0724  ((1076902 1053189, 1076912 1053179, 1076931 1053179, 10…
#> 6        NA -0.0549  ((1070501 1046969, 1070317 1046598, 1070308 1046542, 10…
#> # ℹ 22 more rows
…
