spmodel Workshop - 1 The Basics
…
glance(spmod)
#> # A tibble: 1 × 9
#>       n     p  npar value   AIC  AICc logLik deviance pseudo.r.squared
#>   <int> <dbl> <int> <dbl> <dbl> <dbl>  <dbl>    <dbl>            <dbl>
#> 1   197     1     3 1140. 1146. 1146.  -570.     196.                0

And the augment() function augments the data used to fit the model with diagnostics:

augment(spmod)
#> Simple feature collection with 197 features and 6 fields
#> Geometry type: POINT
#> Dimension:     XY
#> Bounding box:  xmin: -2292550 ymin: 386181.1 xmax: 2173345 ymax: 3090370
#> Projected CRS: NAD83 / Conus Albers
#> # A tibble: 197 × 7
#>   sulfate .fitted .resid    .hat .cooksd .std.resid           geometry
#> *   <dbl>   <dbl>  <dbl>   <dbl>   <dbl>      <dbl>        <POINT [m]>
#> 1   12.9     5.92   7.00 0.00334 1.61e-3     -0.694 (817738.8 1080571)
#> 2   20.2     5.92  14.2  0.00256 1.92e-3      0.865 (914593.6 1295545)
#> 3   16.8     5.92  10.9  0.00259 3.95e-4      0.390 (359574.1 1178228)
#> 4   16.2     5.92  10.3  0.00239 3.63e-4      0.390 (265331.9 1239089)
#> 5    7.86    5.92   1.93 0.00202 8.71e-3     -2.07  (304528.8 1453636)
#> 6   15.4     5.92   9.43 0.00201 2.40e-4      0.345 (162932.8 1451625)
#> # ℹ 191 more rows
…
The sulfate_preds data in spmodel contains 100 locations at which to predict sulfate. We obtain these predictions by running

predict(spmod, newdata = sulfate_preds)

The augment() function can also be used to augment prediction data with predictions:

aug_preds <- augment(spmod, newdata = sulfate_preds)
print(aug_preds)
#> Simple feature collection with 100 features and 1 field
#> Geometry type: POINT
#> Dimension:     XY
#> Bounding box:  xmin: -2283774 ymin: 582930.5 xmax: 1985906 ymax: 3037173
#> Projected CRS: NAD83 / Conus Albers
#> # A tibble: 100 × 2
#>   .fitted            geometry
#> *   <dbl>         <POINT [m]>
#> 1    1.62  (-1771413 1752976)
#> 2   24.4    (1018112 1867127)
#> 3    8.95 (-291256.8 1553212)
#> 4   16.5    (1274293 1267835)
#> 5    4.93 (-547437.6 1638825)
#> 6   26.8    (1445080 1981278)
#> # ℹ 94 more rows
…
