spmodel Workshop - 4 Prediction
…
Note

Examining some of the predictions, we see that a few are negative. These unreasonable negative values are a further indication that we should use a spatial generalized linear model in Chapter 7.

The augment() function can also be used to obtain predictions for unobserved locations. While the required arguments to augment() are the same as the arguments used in predict() (the name of the fitted model object along with a newdata data frame), the output of augment() is an sf object with predictions in the .fitted column. Often, using augment() is more convenient than using predict(), as augment() returns an object with predictions alongside the spatial locations and any predictors used in the model.

moose_aug <- augment(moosemod, newdata = moose_preds)
moose_aug
#> Simple feature collection with 100 features and 3 fields
#> Geometry type: POINT
#> Dimension:     XY
#> Bounding box:  xmin: 269386.2 ymin: 1418453 xmax: 419976.2 ymax: 1541763
#> Projected CRS: NAD83 / Alaska Albers
#> # A tibble: 100 × 4
#>    elev strat .fitted           geometry
#> * <dbl> <chr>   <dbl>        <POINT [m]>
#> 1  143. L       3.45  (401239.6 1436192)
#> 2  324. L       1.59  (352640.6 1490695)
#> 3  158. L      -0.267 (360954.9 1491590)
#> 4  221. M       2.39  (291839.8 1466091)
#> 5  209. M       7.62  (310991.9 1441630)
#> 6  218. L      -1.02  (304473.8 1512103)
#> # ℹ 94 more rows
…
Exercise

Examine the help file ?augment.spmodel or by visiting this link and create site-wise 99% prediction intervals for the unsampled locations found in moose_preds.

Solution

augment(moosemod, newdata = moose_preds, interval = "prediction",
        level = 0.99)
#> Simple feature collection with 100 features and 5 fields
#> Geometry type: POINT
#> Dimension:     XY
#> Bounding box:  xmin: 269386.2 ymin: 1418453 xmax: 419976.2 ymax: 1541763
#> Projected CRS: NAD83 / Alaska Albers
#> # A tibble: 100 × 6
#>    elev strat .fitted .lower .upper           geometry
#> * <dbl> <chr>   <dbl>  <dbl>  <dbl>        <POINT [m]>
#> 1  143. L       3.45  -11.1    18.0 (401239.6 1436192)
#> 2  324. L       1.59  -13.4    16.5 (352640.6 1490695)
#> 3  158. L      -0.267 -15.1    14.5 (360954.9 1491590)
#> 4  221. M       2.39  -12.2    17.0 (291839.8 1466091)
#> 5  209. M       7.62   -6.99   22.2 (310991.9 1441630)
#> 6  218. L      -1.02  -15.9    13.9 (304473.8 1512103)
#> # ℹ 94 more rows
…
